<?xml version="1.0"?>
<svg xmlns="http://www.w3.org/2000/svg" xmlns:xlink="http://www.w3.org/1999/xlink" version="1.1" width="768px" height="384px" viewBox="0 0 768 384">
<defs>



</defs>
<g stroke="none" fill="transparent" fill-rule="nonzero" fill-opacity="1">
<rect x="0" y="0" width="768" height="384" transform="matrix(1 0 0 1 0 0)"/></g>
<g stroke="rgb(0,0,0)" stroke-width="1" stroke-linecap="butt" stroke-linejoin="miter" stroke-miterlimit="4" stroke-opacity="0.1" fill="none">
<path d="M 26.5,32 L 26.5,355"/>
</g>
<g stroke="rgb(0,0,0)" stroke-width="1" stroke-linecap="butt" stroke-linejoin="miter" stroke-miterlimit="4" stroke-opacity="0.1" fill="none">
<path d="M 26.5,356 L 26.5,363.6"/>
</g>
<g stroke="rgb(0,0,0)" stroke-width="1" stroke-linecap="butt" stroke-linejoin="miter" stroke-miterlimit="4" stroke-opacity="0.1" fill="none">
<path d="M 174.5,32 L 174.5,355"/>
</g>
<g stroke="rgb(0,0,0)" stroke-width="1" stroke-linecap="butt" stroke-linejoin="miter" stroke-miterlimit="4" stroke-opacity="0.1" fill="none">
<path d="M 174.5,356 L 174.5,363.6"/>
</g>
<g stroke="rgb(0,0,0)" stroke-width="1" stroke-linecap="butt" stroke-linejoin="miter" stroke-miterlimit="4" stroke-opacity="0.1" fill="none">
<path d="M 322.5,32 L 322.5,355"/>
</g>
<g stroke="rgb(0,0,0)" stroke-width="1" stroke-linecap="butt" stroke-linejoin="miter" stroke-miterlimit="4" stroke-opacity="0.1" fill="none">
<path d="M 322.5,356 L 322.5,363.6"/>
</g>
<g stroke="rgb(0,0,0)" stroke-width="1" stroke-linecap="butt" stroke-linejoin="miter" stroke-miterlimit="4" stroke-opacity="0.1" fill="none">
<path d="M 471.5,32 L 471.5,355"/>
</g>
<g stroke="rgb(0,0,0)" stroke-width="1" stroke-linecap="butt" stroke-linejoin="miter" stroke-miterlimit="4" stroke-opacity="0.1" fill="none">
<path d="M 471.5,356 L 471.5,363.6"/>
</g>
<g stroke="rgb(0,0,0)" stroke-width="1" stroke-linecap="butt" stroke-linejoin="miter" stroke-miterlimit="4" stroke-opacity="0.1" fill="none">
<path d="M 619.5,32 L 619.5,355"/>
</g>
<g stroke="rgb(0,0,0)" stroke-width="1" stroke-linecap="butt" stroke-linejoin="miter" stroke-miterlimit="4" stroke-opacity="0.1" fill="none">
<path d="M 619.5,356 L 619.5,363.6"/>
</g>
<g stroke="rgb(0,0,0)" stroke-width="1" stroke-linecap="butt" stroke-linejoin="miter" stroke-miterlimit="4" stroke-opacity="0.1" fill="none">
<path d="M 768.5,32 L 768.5,355"/>
</g>
<g stroke="rgb(0,0,0)" stroke-width="1" stroke-linecap="butt" stroke-linejoin="miter" stroke-miterlimit="4" stroke-opacity="0.1" fill="none">
<path d="M 768.5,356 L 768.5,363.6"/>
</g>
<g stroke="rgb(0,0,0)" stroke-width="1" stroke-linecap="butt" stroke-linejoin="miter" stroke-miterlimit="4" stroke-opacity="0.1" fill="none">
<path d="M 27,355.5 L 768,355.5"/>
</g>
<g stroke="rgb(0,0,0)" stroke-width="1" stroke-linecap="butt" stroke-linejoin="miter" stroke-miterlimit="4" stroke-opacity="0.1" fill="none">
<path d="M 18,355.5 L 26,355.5"/>
</g>
<g stroke="rgb(0,0,0)" stroke-width="1" stroke-linecap="butt" stroke-linejoin="miter" stroke-miterlimit="4" stroke-opacity="0.1" fill="none">
<path d="M 27,315.5 L 768,315.5"/>
</g>
<g stroke="rgb(0,0,0)" stroke-width="1" stroke-linecap="butt" stroke-linejoin="miter" stroke-miterlimit="4" stroke-opacity="0.1" fill="none">
<path d="M 18,315.5 L 26,315.5"/>
</g>
<g stroke="rgb(0,0,0)" stroke-width="1" stroke-linecap="butt" stroke-linejoin="miter" stroke-miterlimit="4" stroke-opacity="0.1" fill="none">
<path d="M 27,274.5 L 768,274.5"/>
</g>
<g stroke="rgb(0,0,0)" stroke-width="1" stroke-linecap="butt" stroke-linejoin="miter" stroke-miterlimit="4" stroke-opacity="0.1" fill="none">
<path d="M 18,274.5 L 26,274.5"/>
</g>
<g stroke="rgb(0,0,0)" stroke-width="1" stroke-linecap="butt" stroke-linejoin="miter" stroke-miterlimit="4" stroke-opacity="0.1" fill="none">
<path d="M 27,234.5 L 768,234.5"/>
</g>
<g stroke="rgb(0,0,0)" stroke-width="1" stroke-linecap="butt" stroke-linejoin="miter" stroke-miterlimit="4" stroke-opacity="0.1" fill="none">
<path d="M 18,234.5 L 26,234.5"/>
</g>
<g stroke="rgb(0,0,0)" stroke-width="1" stroke-linecap="butt" stroke-linejoin="miter" stroke-miterlimit="4" stroke-opacity="0.1" fill="none">
<path d="M 27,193.5 L 768,193.5"/>
</g>
<g stroke="rgb(0,0,0)" stroke-width="1" stroke-linecap="butt" stroke-linejoin="miter" stroke-miterlimit="4" stroke-opacity="0.1" fill="none">
<path d="M 18,193.5 L 26,193.5"/>
</g>
<g stroke="rgb(0,0,0)" stroke-width="1" stroke-linecap="butt" stroke-linejoin="miter" stroke-miterlimit="4" stroke-opacity="0.1" fill="none">
<path d="M 27,153.5 L 768,153.5"/>
</g>
<g stroke="rgb(0,0,0)" stroke-width="1" stroke-linecap="butt" stroke-linejoin="miter" stroke-miterlimit="4" stroke-opacity="0.1" fill="none">
<path d="M 18,153.5 L 26,153.5"/>
</g>
<g stroke="rgb(0,0,0)" stroke-width="1" stroke-linecap="butt" stroke-linejoin="miter" stroke-miterlimit="4" stroke-opacity="0.1" fill="none">
<path d="M 27,112.5 L 768,112.5"/>
</g>
<g stroke="rgb(0,0,0)" stroke-width="1" stroke-linecap="butt" stroke-linejoin="miter" stroke-miterlimit="4" stroke-opacity="0.1" fill="none">
<path d="M 18,112.5 L 26,112.5"/>
</g>
<g stroke="rgb(0,0,0)" stroke-width="1" stroke-linecap="butt" stroke-linejoin="miter" stroke-miterlimit="4" stroke-opacity="0.1" fill="none">
<path d="M 27,72.5 L 768,72.5"/>
</g>
<g stroke="rgb(0,0,0)" stroke-width="1" stroke-linecap="butt" stroke-linejoin="miter" stroke-miterlimit="4" stroke-opacity="0.1" fill="none">
<path d="M 18,72.5 L 26,72.5"/>
</g>
<g stroke="rgb(0,0,0)" stroke-width="1" stroke-linecap="butt" stroke-linejoin="miter" stroke-miterlimit="4" stroke-opacity="0.1" fill="none">
<path d="M 27,32.5 L 768,32.5"/>
</g>
<g stroke="rgb(0,0,0)" stroke-width="1" stroke-linecap="butt" stroke-linejoin="miter" stroke-miterlimit="4" stroke-opacity="0.1" fill="none">
<path d="M 18,32.5 L 26,32.5"/>
</g>
<g stroke="none" fill="#ffb3ba" fill-rule="nonzero" fill-opacity="1" clip-path="url(#clip-1)">
<path d="M 259,10 L 259,22 299,22 299,10 Z"/>
</g>
<g stroke="none" fill="#666" fill-rule="nonzero" fill-opacity="1" clip-path="url(#clip-1)">
<text style="font:normal 12px 'Helvetica Neue', 'Helvetica', 'Arial', sans-serif;" text-anchor="start" dominant-baseline="middle" transform="matrix(1 0 0 1 0 0)"><tspan x="305" y="16">Average monthly earnings per node.</tspan></text></g>
<g stroke="rgb(0,0,0)" stroke-width="1" stroke-linecap="butt" stroke-linejoin="miter" stroke-miterlimit="4" stroke-opacity="0.1" fill="none">
<path d="M 26,355.5 L 769,355.5"/>
</g>
<g stroke="none" fill="#666" fill-rule="nonzero" fill-opacity="1" clip-path="url(#clip-2)">
<text style="font:normal 12px 'Helvetica Neue', 'Helvetica', 'Arial', sans-serif;" text-anchor="middle" dominant-baseline="middle" transform="matrix(1 0 0 1 100.2 366.6)"><tspan x="0" y="7.199999999999999">February</tspan></text></g>
<g stroke="none" fill="#666" fill-rule="nonzero" fill-opacity="1" clip-path="url(#clip-2)">
<text style="font:normal 12px 'Helvetica Neue', 'Helvetica', 'Arial', sans-serif;" text-anchor="middle" dominant-baseline="middle" transform="matrix(1 0 0 1 248.6 366.6)"><tspan x="0" y="7.199999999999999">March</tspan></text></g>
<g stroke="none" fill="#666" fill-rule="nonzero" fill-opacity="1" clip-path="url(#clip-2)">
<text style="font:normal 12px 'Helvetica Neue', 'Helvetica', 'Arial', sans-serif;" text-anchor="middle" dominant-baseline="middle" transform="matrix(1 0 0 1 397 366.6)"><tspan x="0" y="7.199999999999999">April</tspan></text></g>
<g stroke="none" fill="#666" fill-rule="nonzero" fill-opacity="1" clip-path="url(#clip-2)">
<text style="font:normal 12px 'Helvetica Neue', 'Helvetica', 'Arial', sans-serif;" text-anchor="middle" dominant-baseline="middle" transform="matrix(1 0 0 1 545.4 366.6)"><tspan x="0" y="7.199999999999999">May</tspan></text></g>
<g stroke="none" fill="#666" fill-rule="nonzero" fill-opacity="1" clip-path="url(#clip-2)">
<text style="font:normal 12px 'Helvetica Neue', 'Helvetica', 'Arial', sans-serif;" text-anchor="middle" dominant-baseline="middle" transform="matrix(1 0 0 1 693.8000000000001 366.6)"><tspan x="0" y="7.199999999999999">June</tspan></text></g>
<g stroke="rgb(0,0,0)" stroke-width="1" stroke-linecap="butt" stroke-linejoin="miter" stroke-miterlimit="4" stroke-opacity="0.1" fill="none">
<path d="M 26.5,32 L 26.5,356"/>
</g>
<g stroke="none" fill="#666" fill-rule="nonzero" fill-opacity="1" clip-path="url(#clip-3)">
<text style="font:normal 12px 'Helvetica Neue', 'Helvetica', 'Arial', sans-serif;" text-anchor="end" dominant-baseline="middle" transform="matrix(1 0 0 1 15 355.6)"><tspan x="0" y="0">0</tspan></text></g>
<g stroke="none" fill="#666" fill-rule="nonzero" fill-opacity="1" clip-path="url(#clip-3)">
<text style="font:normal 12px 'Helvetica Neue', 'Helvetica', 'Arial', sans-serif;" text-anchor="end" dominant-baseline="middle" transform="matrix(1 0 0 1 15 315.15000000000003)"><tspan x="0" y="0">10</tspan></text></g>
<g stroke="none" fill="#666" fill-rule="nonzero" fill-opacity="1" clip-path="url(#clip-3)">
<text style="font:normal 12px 'Helvetica Neue', 'Helvetica', 'Arial', sans-serif;" text-anchor="end" dominant-baseline="middle" transform="matrix(1 0 0 1 15 274.70000000000005)"><tspan x="0" y="0">20</tspan></text></g>
<g stroke="none" fill="#666" fill-rule="nonzero" fill-opacity="1" clip-path="url(#clip-3)">
<text style="font:normal 12px 'Helvetica Neue', 'Helvetica', 'Arial', sans-serif;" text-anchor="end" dominant-baseline="middle" transform="matrix(1 0 0 1 15 234.25)"><tspan x="0" y="0">30</tspan></text></g>
<g stroke="none" fill="#666" fill-rule="nonzero" fill-opacity="1" clip-path="url(#clip-3)">
<text style="font:normal 12px 'Helvetica Neue', 'Helvetica', 'Arial', sans-serif;" text-anchor="end" dominant-baseline="middle" transform="matrix(1 0 0 1 15 193.8)"><tspan x="0" y="0">40</tspan></text></g>
<g stroke="none" fill="#666" fill-rule="nonzero" fill-opacity="1" clip-path="url(#clip-3)">
<text style="font:normal 12px 'Helvetica Neue', 'Helvetica', 'Arial', sans-serif;" text-anchor="end" dominant-baseline="middle" transform="matrix(1 0 0 1 15 153.35000000000002)"><tspan x="0" y="0">50</tspan></text></g>
<g stroke="none" fill="#666" fill-rule="nonzero" fill-opacity="1" clip-path="url(#clip-3)">
<text style="font:normal 12px 'Helvetica Neue', 'Helvetica', 'Arial', sans-serif;" text-anchor="end" dominant-baseline="middle" transform="matrix(1 0 0 1 15 112.9)"><tspan x="0" y="0">60</tspan></text></g>
<g stroke="none" fill="#666" fill-rule="nonzero" fill-opacity="1" clip-path="url(#clip-3)">
<text style="font:normal 12px 'Helvetica Neue', 'Helvetica', 'Arial', sans-serif;" text-anchor="end" dominant-baseline="middle" transform="matrix(1 0 0 1 15 72.45)"><tspan x="0" y="0">70</tspan></text></g>
<g stroke="none" fill="#666" fill-rule="nonzero" fill-opacity="1" clip-path="url(#clip-3)">
<text style="font:normal 12px 'Helvetica Neue', 'Helvetica', 'Arial', sans-serif;" text-anchor="end" dominant-baseline="middle" transform="matrix(1 0 0 1 15 32)"><tspan x="0" y="0">80</tspan></text></g>
<g stroke="none" fill="#ffb3ba" fill-rule="nonzero" fill-opacity="1" clip-path="url(#clip-4)">
<path d="M 46.776,105.292771 L 46.776,355.1 153.624,355.1 153.624,105.292771 Z"/>
</g>
<g stroke="none" fill="#ffdfba" fill-rule="nonzero" fill-opacity="1" clip-path="url(#clip-4)">
<path d="M 195.176,37.679017 L 195.176,355.1 302.024,355.1 302.024,37.679017 Z"/>
</g>
<g stroke="none" fill="#fafa9e" fill-rule="nonzero" fill-opacity="1" clip-path="url(#clip-4)">
<path d="M 343.576,78.707997 L 343.576,355.1 450.424,355.1 450.424,78.707997 Z"/>
</g>
<g stroke="none" fill="#baffc9" fill-rule="nonzero" fill-opacity="1" clip-path="url(#clip-4)">
<path d="M 491.976,51.918468 L 491.976,355.1 598.824,355.1 598.824,51.918468 Z"/>
</g>
<g stroke="none" fill="#bae1ff" fill-rule="nonzero" fill-opacity="1" clip-path="url(#clip-4)">
<path d="M 640.376,63.818372 L 640.376,355.1 747.224,355.1 747.224,63.818372 Z"/>
</g>
</svg>
